^C:\USERS\USER\DESKTOP\VJEZBA3ZADATAK1\VJEZBA3ZADATAK1\SOURCE.CPP|C:\USERS\USER\DESKTOP\VJEZBA3ZADATAK1\VJEZBA3ZADATAK1\VJEZBA3ZADATAK1.CPP
C:\USERS\USER\DESKTOP\VJEZBA3ZADATAK1\VJEZBA3ZADATAK1\DEBUG\VC142.PDB
C:\USERS\USER\DESKTOP\VJEZBA3ZADATAK1\VJEZBA3ZADATAK1\DEBUG\VC142.IDB
C:\USERS\USER\DESKTOP\VJEZBA3ZADATAK1\VJEZBA3ZADATAK1\DEBUG\VJEZBA3ZADATAK1.OBJ
C:\USERS\USER\DESKTOP\VJEZBA3ZADATAK1\VJEZBA3ZADATAK1\DEBUG\SOURCE.OBJ
^C:\USERS\USER\DESKTOP\VJEZBA3ZADATAK1\VJEZBA3ZADATAK1\VJEZBA3ZADATAK1.CPP
C:\USERS\USER\DESKTOP\VJEZBA3ZADATAK1\VJEZBA3ZADATAK1\DEBUG\VC142.PDB
C:\USERS\USER\DESKTOP\VJEZBA3ZADATAK1\VJEZBA3ZADATAK1\DEBUG\VC142.IDB
C:\USERS\USER\DESKTOP\VJEZBA3ZADATAK1\VJEZBA3ZADATAK1\DEBUG\VJEZBA3ZADATAK1.OBJ
