^C:\USERS\USER\DESKTOP\VJEZBA3ZADATAK2\VJEZBA3ZADATAK2\DEBUG\VJEZBA3ZADATAK2.OBJ
C:\USERS\USER\DESKTOP\VJEZBA3ZADATAK2\DEBUG\VJEZBA3ZADATAK2.ILK
C:\USERS\USER\DESKTOP\VJEZBA3ZADATAK2\DEBUG\VJEZBA3ZADATAK2.EXE
C:\USERS\USER\DESKTOP\VJEZBA3ZADATAK2\DEBUG\VJEZBA3ZADATAK2.PDB
